$MeshFormat
4.1 0 8
$EndMeshFormat
$Entities
9 10 2 0
1 0 0 0 0 
2 0.01416 0 0 0 
3 0.01416 0.001 0 0 
4 0 0.001 0 0 
5 0.00236 0.001 0 0 
6 0 0.001035 0 0 
7 0.00236 0.001035 0 0 
8 0 0.012 0 0 
9 0.01416 0.012 0 0 
1 0 0 0 0.01416 0 0 1 120 2 1 -2 
2 0.01416 0 0 0.01416 0.001 0 1 130 2 2 -3 
3 0.01416 0.001 0 0.01416 0.012 0 1 130 2 3 -9 
4 0 0.012 0 0.01416 0.012 0 1 130 2 9 -8 
5 0 0.001034999999999999 0 0 0.012 0 0 2 8 -6 
7 0 0 0 0 0.001 0 0 2 4 -1 
8 0.00236 0.001 0 0.01416 0.001 0 0 2 5 -3 
9 0 0.001 0 0.00236 0.001 0 1 121 2 4 -5 
10 0 0.001035 0 0.00236 0.001035 0 1 121 2 6 -7 
11 0.00236 0.001 0 0.00236 0.001035 0 1 121 2 5 -7 
13 0 0 0 0.01416 0.001 0 1 111 5 8 -2 -1 -7 9 
15 0 0.001 0 0.01416 0.012 0 1 101 6 10 -11 8 3 4 5 
$EndEntities
$Nodes
21 727 1 727
0 1 0 1
1
0 0 0
0 2 0 1
2
0.01416 0 0
0 3 0 1
3
0.01416 0.001 0
0 4 0 1
4
0 0.001 0
0 5 0 1
5
0.00236 0.001 0
0 6 0 1
6
0 0.001035 0
0 7 0 1
7
0.00236 0.001035 0
0 8 0 1
8
0 0.012 0
0 9 0 1
9
0.01416 0.012 0
1 1 0 28
10
11
12
13
14
15
16
17
18
19
20
21
22
23
24
25
26
27
28
29
30
31
32
33
34
35
36
37
0.0001029725262867077 0 0
0.0002157995520255013 0 0
0.0003394241726716741 0 0
0.0004748797126463609 0 0
0.0006232984308435774 0 0
0.000785920873210349 0 0
0.0009641063907829522 0 0
0.001159344297065359 0 0
0.001373266528426058 0 0
0.001607661262643113 0 0
0.001864487672292055 0 0
0.002145892453039768 0 0
0.002454227833679864 0 0
0.002792071087871414 0 0
0.003162246025900189 0 0
0.003567846807371397 0 0
0.004012263844042996 0 0
0.004499211734436541 0 0
0.00503276083280014 0 0
0.005617370745181604 0 0
0.006257928130482489 0 0
0.006959787194355571 0 0
0.007728814403420379 0 0
0.008571437842755969 0 0
0.009494700706563138 0 0
0.01050632015909488 0 0
0.0116147521748923 0 0
0.01282926152374572 0 0
1 2 0 0
1 3 0 7
38
39
40
41
42
43
44
0.01416 0.002340583545972543 0
0.01416 0.003690858672789743 0
0.01416 0.005050895954448748 0
0.01416 0.006420765711226714 0
0.01416 0.007800539225095907 0
0.01416 0.009190287882235783 0
0.01416 0.01059008409940401 0
1 4 0 9
45
46
47
48
49
50
51
52
53
0.01274400000000264 0.012 0
0.01132800000000582 0.012 0
0.009912000000009956 0.012 0
0.008496000000013749 0.012 0
0.007080000000018624 0.012 0
0.0056640000000149 0.012 0
0.004248000000011515 0.012 0
0.002832000000007448 0.012 0
0.001416000000003453 0.012 0
1 5 0 16
54
55
56
57
58
59
60
61
62
63
64
65
66
67
68
69
0 0.01065870846254824 0
0 0.009455675495678252 0
0 0.008376650237985887 0
0 0.007408849806460204 0
0 0.00654080949828686 0
0 0.005762245861201712 0
0 0.005063935826085422 0
0 0.004437606986063702 0
0 0.003875839548729358 0
0 0.003371978511367767 0
0 0.002920055077781879 0
0 0.002514715463953061 0
0 0.00215115783340343 0
0 0.001825075449905499 0
0 0.001532605258629147 0
0 0.001270282657839157 0
1 7 0 6
70
71
72
73
74
75
0 0.0007996761060849965 0
0 0.0006224777665416483 0
0 0.0004657353676466552 0
0 0.0003270874486670378 0
0 0.0002044451673789556 0
0 9.59608165311518e-05 0
1 8 0 29
76
77
78
79
80
81
82
83
84
85
86
87
88
89
90
91
92
93
94
95
96
97
98
99
100
101
102
103
104
0.002408847901068918 0.001 0
0.002463559977097844 0.001 0
0.002524840239448065 0.001 0
0.002593477187040563 0.001 0
0.00267035399607228 0.001 0
0.002756459856747107 0.001 0
0.002852902728241688 0.001 0
0.002960923547828451 0.001 0
0.003081912257167994 0.001 0
0.003217425641203014 0.001 0
0.003369207416961542 0.001 0
0.003539210590482241 0.001 0
0.003729622599581906 0.001 0
0.003942893546602724 0.001 0
0.004181767673887233 0.001 0
0.004449318584202602 0.001 0
0.004748988987864329 0.001 0
0.005084634868982702 0.001 0
0.005460574908931131 0.001 0
0.005881646487062834 0.001 0
0.006353267733592973 0.001 0
0.006881507006773175 0.001 0
0.007473161446712098 0.001 0
0.008135843926710799 0.001 0
0.008878081433325403 0.001 0
0.009709424298338558 0.001 0
0.0106405699552874 0.001 0
0.01168349950371686 0.001 0
0.01285163261693269 0.001 0
1 9 0 20
105
106
107
108
109
110
111
112
113
114
115
116
117
118
119
120
121
122
123
124
0.0002176411581831798 0.001 0
0.0004192255161396713 0.001 0
0.0006059376401229473 0.001 0
0.0007788747685107737 0.001 0
0.0009390531659223284 0.001 0
0.001087414127700569 0.001 0
0.001224829520842745 0.001 0
0.001352106852870141 0.001 0
0.001469994089715973 0.001 0
0.001579184006633688 0.001 0
0.001680318260970535 0.001 0
0.001773991159338139 0.001 0
0.001860753183943024 0.001 0
0.001941114190996337 0.001 0
0.002015546421757511 0.001 0
0.002084487296923512 0.001 0
0.002148341944645363 0.001 0
0.002207485605767326 0.001 0
0.002262265848671165 0.001 0
0.002313004594398146 0.001 0
1 10 0 20
125
126
127
128
129
130
131
132
133
134
135
136
137
138
139
140
141
142
143
144
0.0002176411581831798 0.001035 0
0.0004192255161396713 0.001035 0
0.0006059376401229473 0.001035 0
0.0007788747685107737 0.001035 0
0.0009390531659223284 0.001035 0
0.001087414127700569 0.001035 0
0.001224829520842745 0.001035 0
0.001352106852870141 0.001035 0
0.001469994089715973 0.001035 0
0.001579184006633688 0.001035 0
0.001680318260970535 0.001035 0
0.001773991159338139 0.001035 0
0.001860753183943024 0.001035 0
0.001941114190996337 0.001035 0
0.002015546421757511 0.001035 0
0.002084487296923512 0.001035 0
0.002148341944645363 0.001035 0
0.002207485605767326 0.001035 0
0.002262265848671165 0.001035 0
0.002313004594398146 0.001035 0
1 11 0 0
2 13 0 185
145
146
147
148
149
150
151
152
153
154
155
156
157
158
159
160
161
162
163
164
165
166
167
168
169
170
171
172
173
174
175
176
177
178
179
180
181
182
183
184
185
186
187
188
189
190
191
192
193
194
195
196
197
198
199
200
201
202
203
204
205
206
207
208
209
210
211
212
213
214
215
216
217
218
219
220
221
222
223
224
225
226
227
228
229
230
231
232
233
234
235
236
237
238
239
240
241
242
243
244
245
246
247
248
249
250
251
252
253
254
255
256
257
258
259
260
261
262
263
264
265
266
267
268
269
270
271
272
273
274
275
276
277
278
279
280
281
282
283
284
285
286
287
288
289
290
291
292
293
294
295
296
297
298
299
300
301
302
303
304
305
306
307
308
309
310
311
312
313
314
315
316
317
318
319
320
321
322
323
324
325
326
327
328
329
0.002287480517529627 0.0009560288110206999 0
0.002110818037890936 0.0009370067867575292 0
0.001900150237700653 0.0009312880166468631 0
0.002433180234162029 0.0009409306397942903 0
0.002628948220629564 0.0009250366343183824 0
0.001610134342894277 0.0009136586822768014 0
0.0005582832981373878 0.0001238336820292529 0
0.00128273152278988 0.0008905992595615938 0
0.0008825879003564812 0.0008573248795457042 0
0.0001202321435370063 0.0005406886129690164 0
0.002808155698746843 0.0009172774043196788 0
0.003005619848278546 0.0008853580165924078 0
0.003293316529082277 0.0008755975466172391 0
0.003621593513285192 0.0008225538393180772 0
0.0008728297240546318 0.0001454247938742231 0
0.001490463895534585 0.0001941269405689441 0
0.0002702598752419085 9.886066201096933e-05 0
0.002012064841904341 0.0001948632574214777 0
0.0005033940618674942 0.0008484943455557006 0
0.002621024484413688 0.0002749647721815429 0
0.004061448279172238 0.0008117152243699721 0
0.0001044117641530849 0.0002635664625248159 0
0.004599153786033467 0.0007543859662639226 0
0.003351208789121275 0.0003050643156795923 0
0.005272604888956918 0.0006918742576904008 0
0.003040234135417394 0.000341159105291095 0
0.003194039572020719 0.0005717498621533251 0
0.002932689972469069 0.0005475270798910465 0
0.00234743550200905 0.0002926080276748166 0
0.00245124721966435 0.0004759978385276996 0
0.002256304469180376 0.0004831542183772502 0
0.002358099656531387 0.0006427332462505321 0
0.002177456844845707 0.0006319218633152984 0
0.002533411179497352 0.0006313513904411556 0
0.002246483639791838 0.0007596973198798753 0
0.002110292746090369 0.0007443384606381431 0
0.002038436204886319 0.0006414171435846699 0
0.002367628822880356 0.0007683845942560261 0
0.001983755159417535 0.0007550064205222386 0
0.001906002808439913 0.0006542622684317236 0
0.002531507770429819 0.0008023325837766039 0
0.00185328086429148 0.000778180651748871 0
0.001769858342208362 0.0006691680931025068 0
0.001827405062763063 0.0005371842104948612 0
0.001680765929749569 0.0005566940729132884 0
0.001748630907544969 0.0004166906351479294 0
0.001635961549264976 0.0006857471259658975 0
0.001535287559954181 0.0005794615482133832 0
0.001483239160696321 0.0007198324564705829 0
0.001387787477912521 0.0006112317747249363 0
0.001437444687910715 0.0004659902329194653 0
0.001284200070849988 0.0004882584117650341 0
0.001237335013867174 0.0006364660678992316 0
0.001135945017951679 0.0005272243953760509 0
0.001169253330773968 0.0003604508586479446 0
0.001089762205174409 0.0006663894894074897 0
0.000986825129543724 0.0005595609879101653 0
0.002640649786492929 0.0005078208762504407 0
0.002685884932203217 0.0006710617937178876 0
0.002314178215058153 0.0008529184220081555 0
0.002214897748187444 0.000857570280046909 0
0.003480749931578759 0.0006068746519250039 0
0.003741476395428042 0.0003689603404105284 0
0.004129633225849503 0.0003532091618035963 0
0.0009371573101556599 0.0006970601448993741 0
0.000834396720288939 0.0005827378115618796 0
0.0009019309930105527 0.0004206270239475112 0
0.0007348661716942253 0.0004600087282622774 0
0.0006702971867275816 0.0005977110772783053 0
0.0005759279388555059 0.000496745646317239 0
0.0006226747352123992 0.0003536958172643768 0
0.0004719604499771322 0.0003897830205294004 0
0.0004285290465474463 0.0005321311858662676 0
0.0003310104055758938 0.0004308623798247696 0
0.0003754065860259465 0.0002837957402179257 0
0.001047099853212439 0.0008013636166016212 0
0.001266305412745708 0.0001771715367074334 0
0.002419202009070654 0.0008521868260467959 0
0.001695955479680954 0.0001640023243117858 0
0.0006877047349288426 0.000857479759379047 0
0.001051864583737184 0.000183278734184752 0
0.002059570029050945 0.0008578064544686251 0
0.002503332753459324 0.0008893446121151035 0
0.002366873641173375 0.0009138606027429163 0
0.0003269285615091665 0.0008567893841915274 0
0.002645870343844461 0.0008177036986444875 0
0.006117457110327904 0.0006134526680333786 0
8.852735431556857e-05 0.0001502029919550537 0
0.0007096952916341876 0.0001313712461038844 0
0.0007688874569164395 0.0002870003302526279 0
0.0002336205846979179 0.0003136874535550369 0
0.0001316512318464221 0.0006948929994218581 0
0.0002707490625097978 0.0005928613719845058 0
0.0004099770960108336 0.0006966914390776581 0
0.001418036298187281 0.0008921381504448544 0
0.001349541905967967 0.0007710816034795617 0
0.001193765387547254 0.0007765900387348962 0
0.001519558833705933 0.0008418982478718943 0
0.0001063655003165782 0.0003883537543955375 0
0.001715997163914577 0.0008977490954824174 0
0.001727072383353363 0.0007854669078689629 0
0.000763596388060498 0.0007168981250879232 0
0.0004038499682812851 0.0001377416577280596 0
0.001017255151075345 0.0003344138141131164 0
0.001357325035546351 0.000336803514624752 0
0.00255593190602239 0.0009397599699681198 0
0.001978330306376922 0.0009321332047716094 0
0.006624546900379125 0.0005222576974034332 0
0.00303257470676269 0.0007201973557692656 0
0.005663282817926928 0.0006673089749056316 0
0.002189570358002584 0.0009335761608496546 0
0.004918862564574513 0.0007155301549492569 0
0.004761797752218248 0.0003887636863186076 0
0.00431476010926391 0.000778560507355869 0
0.003833203602403953 0.0008248932984904571 0
0.003719740011832519 0.0006396749468786057 0
0.001815991154372498 0.0009251404299491207 0
0.003451541843617323 0.000864422839592873 0
0.003139254980197917 0.0008706446166472583 0
0.002895003423889053 0.0008119204612111997 0
0.00290545695249968 0.0009137081038812455 0
0.00271472628169682 0.0009099769723955278 0
0.002049750418399965 0.0009453892891995528 0
0.002242182107406574 0.0009586577553799483 0
0.0001930076694858822 0.00018518658589239 0
0.00249616902203793 0.0009540070443755027 0
0.002761917543530726 0.0008000994575498994 0
0.0005068557338950093 0.0002541210177837982 0
0.00209270788826042 0.0005117251442313442 0
0.002795399392264269 0.0003944814494663491 0
0.001939621422398331 0.0008534719142985795 0
0.001946081915924446 0.0003993317241788395 0
0.004423429942601522 0.0004975533837099253 0
0.001145686480613847 0.0008965172474173519 0
0.007245386606391965 0.0005123811413253016 0
0.001589564936957965 0.0004448169477528748 0
0.002263128356862047 0.0009058887880539831 0
0.002146465235245599 0.0008819557034154035 0
0.000592604885382806 0.0007201025011338175 0
0.0001593860391561045 8.122144325399301e-05 0
0.001962126776054832 0.0005487840981842876 0
0.002580516762813704 0.0008668427491025033 0
0.0001543942617622715 0.0008475844895594146 0
0.002128795688590917 0.0003473162278725424 0
0.003204391492196406 0.0007542913123944313 0
0.002336502297199077 0.0009595345886931514 0
0.003343402387602442 0.0007339406816786937 0
0.0002089657314144687 0.0004535292259522614 0
0.007943601151001553 0.000513194530424741 0
0.0135002235351696 0.0005 0
0.005086716552461703 0.0004367698090982107 0
0.0006312730745841326 0.0002306844608807273 0
0.001620517007859258 0.0008009042037205769 0
0.001524589048174829 0.0009290953338343181 0
0.003943157317395443 0.0006010269069574256 0
0.002821864580803961 0.0006726564150106152 0
0.00238108081472068 0.0009628651662460715 0
0.0002971179260620512 0.0002037761576447606 0
0.001858291384509821 0.0008686939485151214 0
0.001785462323935614 0.0008542583355081637 0
0.002313632605564455 0.0009176462425037812 0
0.001500905986857302 0.0003466608486184157 0
0.005420702406647201 0.0003526116410538676 0
0.001013233646811449 0.0009174554943039337 0
0.005851478602555922 0.0003197168046289624 0
0.008524108439784669 0.0005909461737292421 0
0.01224478645482189 0.0005 0
0.0009170903606012866 0.0002686456765204808 0
7.489118165738419e-05 7.309548829557817e-05 0
0.001646261176662895 0.0003029455592589338 0
0.002217683263844788 0.0001669575025937673 0
0.0005260561223995629 0.000605284906747298 0
0.009091577845129626 0.000441536338221469 0
0.001041329529756674 0.0004490190620690811 0
0.002586552182462011 0.0007302060908583278 0
0.00184342127308784 0.0002500558768319229 0
0.004173442389686408 0.0006077084697913939 0
0.002774012871548049 0.0005544984300529001 0
0.002466682771521524 0.0007348344253118595 0
0.01111128544824786 0.0005 0
0.0002562842073868875 0.0007367309399358823 0
0.002872581045295164 0.0002005945543045812 0
0.001441142726534045 0.0008041750079155928 0
0.01000051043282901 0.0004144438292537152 0
0.002156781382754145 0.0008163077943400376 0
2 15 0 398
330
331
332
333
334
335
336
337
338
339
340
341
342
343
344
345
346
347
348
349
350
351
352
353
354
355
356
357
358
359
360
361
362
363
364
365
366
367
368
369
370
371
372
373
374
375
376
377
378
379
380
381
382
383
384
385
386
387
388
389
390
391
392
393
394
395
396
397
398
399
400
401
402
403
404
405
406
407
408
409
410
411
412
413
414
415
416
417
418
419
420
421
422
423
424
425
426
427
428
429
430
431
432
433
434
435
436
437
438
439
440
441
442
443
444
445
446
447
448
449
450
451
452
453
454
455
456
457
458
459
460
461
462
463
464
465
466
467
468
469
470
471
472
473
474
475
476
477
478
479
480
481
482
483
484
485
486
487
488
489
490
491
492
493
494
495
496
497
498
499
500
501
502
503
504
505
506
507
508
509
510
511
512
513
514
515
516
517
518
519
520
521
522
523
524
525
526
527
528
529
530
531
532
533
534
535
536
537
538
539
540
541
542
543
544
545
546
547
548
549
550
551
552
553
554
555
556
557
558
559
560
561
562
563
564
565
566
567
568
569
570
571
572
573
574
575
576
577
578
579
580
581
582
583
584
585
586
587
588
589
590
591
592
593
594
595
596
597
598
599
600
601
602
603
604
605
606
607
608
609
610
611
612
613
614
615
616
617
618
619
620
621
622
623
624
625
626
627
628
629
630
631
632
633
634
635
636
637
638
639
640
641
642
643
644
645
646
647
648
649
650
651
652
653
654
655
656
657
658
659
660
661
662
663
664
665
666
667
668
669
670
671
672
673
674
675
676
677
678
679
680
681
682
683
684
685
686
687
688
689
690
691
692
693
694
695
696
697
698
699
700
701
702
703
704
705
706
707
708
709
710
711
712
713
714
715
716
717
718
719
720
721
722
723
724
725
726
727
0.002701515372853841 0.001064714234236367 0
0.002331090816246238 0.001076466803422141 0
0.001977812791035762 0.001098026661126541 0
0.003298910814574674 0.001128400515235305 0
0.004316137558704592 0.001207212453257681 0
0.005663788863838492 0.001321703687409683 0
0.001630405740445169 0.001118656299898604 0
0.0006052326389039515 0.005413588253100982 0
0.0004103648576700078 0.003622720127288853 0
0.007100311324308778 0.001463735364974174 0
0.009279331025960978 0.001718043776876968 0
0.001288468186856443 0.001141159372376037 0
0.002178291091330729 0.001091222121753624 0
0.006312388342874111 0.01077504962289304 0
0.0002554978914223658 0.002280048254886039 0
0.0008767630490539374 0.007871399476252025 0
0.0008743242186009785 0.001185425796300742 0
0.002494200108272954 0.00105022615584035 0
0.01297803844919476 0.007097099098010529 0
0.01113539690207484 0.001836802822542357 0
0.004915702293050134 0.001234868193068744 0
0.003636723298145473 0.00119572643869875 0
0.002906913138035071 0.001088535375313988 0
0.0005119195848186061 0.00118512400675015 0
0.00181374976364619 0.001113237539777806 0
0.009070332162212253 0.01067820143779341 0
0.003623015837433341 0.01074783748112741 0
0.01301539192471482 0.004407445583442572 0
0.0002329651590731423 0.001682322807750556 0
0.002384967428721813 0.001072521268412704 0
0.002353797768249386 0.001126556362853515 0
0.0009881601976931055 0.01005719197911324 0
0.01201148243743591 0.01087372102377509 0
0.002288507709213177 0.001118465121385065 0
0.002304475370089264 0.001187349463013368 0
0.0002256066515241621 0.001396807443196651 0
0.0004488286932914342 0.001555113143263795 0
0.0004595348571623545 0.001800594837875228 0
0.0006705165425417072 0.001670666713434148 0
0.0006788418522903881 0.001906618773059599 0
0.0008805827253213251 0.001780856557761189 0
0.0008919431464848046 0.002023037493932925 0
0.001094359060272659 0.001894387956023392 0
0.001106565704212457 0.002138235871745539 0
0.001308927453101551 0.002009325752076097 0
0.001325131120845994 0.002253194020503699 0
0.001552877093281614 0.002087233810058769 0
0.001565250187522443 0.002398029190479251 0
0.001789345503027819 0.002241163385453249 0
0.001811813918654314 0.002545750943893877 0
0.002114731395076036 0.002356387967568743 0
0.002090612522976882 0.002700524935438013 0
0.002409043481318579 0.0025364747749204 0
0.002404136834345393 0.002890708764548828 0
0.002737576530572401 0.002687252963993733 0
0.002738318730574064 0.003083285918803346 0
0.003100974416532127 0.002865798236693204 0
0.003124827597756584 0.003304535153717552 0
0.003487406959636872 0.003069823440815582 0
0.003530365434518575 0.003542931794220249 0
0.003945778764437982 0.003194274302634499 0
0.003986337546187755 0.003800294823921985 0
0.004450727673140447 0.003507596693397219 0
0.004492891805741569 0.004101597670734891 0
0.003968487716922735 0.004374771760987519 0
0.004520271776681666 0.00473667780209897 0
0.005085661516320862 0.004389563146145362 0
0.005110998870868748 0.005126933650772936 0
0.005742703593048269 0.004704370764320772 0
0.002426062017671354 0.00329891472686732 0
0.004498834722780327 0.005456447715254277 0
0.005773952936908029 0.005517563545588219 0
0.006471529418217201 0.005048109441433745 0
0.006522052335306034 0.005893084276168933 0
0.00729912809759635 0.005373637723356829 0
0.002753945012270257 0.00233451255898786 0
0.001794637919360431 0.001984235773252747 0
0.001091137150278212 0.002430541639330552 0
0.005570315222049684 0.004019533465482501 0
0.007335439404800166 0.006339871328710118 0
0.008175668664581609 0.005775888107337194 0
0.003420005328061329 0.002633108904024943 0
0.007200791751357715 0.004511277232594079 0
0.00576735431642915 0.006335376602082714 0
0.00308623170344967 0.003857666458673648 0
0.004433660150221338 0.002941091042999775 0
0.001797549447679491 0.002855759675191342 0
0.008196895573717913 0.006802932061377507 0
0.001286602455489916 0.001785955200119101 0
0.009067834165061317 0.006234175812307559 0
0.009028157862548541 0.005182296868185796 0
0.007314853230986482 0.007367013442983702 0
0.009251669838616054 0.007297475253890158 0
0.009940705853483035 0.005613454360405365 0
0.009871274959020463 0.004599147647058361 0
0.008969190665877881 0.004150974316558798 0
0.009778157450372738 0.003591942215289085 0
0.01071190980707705 0.004004328896207208 0
0.0008731027133757446 0.001556291993569225 0
0.008881322322139826 0.0031914562218385 0
0.004914361903691782 0.003209407303518125 0
0.004863587695617099 0.002642572865316285 0
0.005356768019320579 0.002835731946557745 0
0.004424727437441225 0.002428585636717663 0
0.004771949779360982 0.002121625023932167 0
0.004358312027490987 0.001974152697093101 0
0.004040547722522228 0.00219967641680357 0
0.004007476730798321 0.001818555449916408 0
0.00371299907557851 0.002017545994647196 0
0.003714144178015759 0.00163435340924491 0
0.003431000115064011 0.001846329685027595 0
0.003404888061609635 0.001515209235069582 0
0.003173861621182007 0.001689479287313829 0
0.003170259179162978 0.001965679124792502 0
0.002938980061680469 0.001810496237022252 0
0.002947071564699826 0.001568373200681017 0
0.00274296262497302 0.001671752957670972 0
0.00276190036455212 0.00145845140872355 0
0.002387404008497696 0.001196215529516781 0
0.002337763989767542 0.001270014711839494 0
0.002240441724386442 0.001253032558999913 0
0.002275688451500426 0.001350405453149417 0
0.00217392103454117 0.001328061589202146 0
0.002205718192455919 0.001443443876860403 0
0.00207739928599175 0.001397732245560443 0
0.00212099970854059 0.00154785618266416 0
0.001980545527591966 0.001514809217521464 0
0.002265267602507686 0.001570803342296458 0
0.002160373901968296 0.00170670778403871 0
0.002383759532202051 0.001366264467236944 0
0.00193529112636624 0.001378270684652708 0
0.001838095496350456 0.001483857095062085 0
0.002342987542150985 0.001724155425669919 0
0.001797066450310301 0.001345152498896516 0
0.00169059039107561 0.001444943082932464 0
0.001734414890581552 0.001598899549680576 0
0.00220340747924861 0.00190065722842105 0
0.001579660598649353 0.001555381002711976 0
0.001541197347536679 0.001399318014329835 0
0.001426172346467217 0.001506051771389061 0
0.002934056421925527 0.001337066812337224 0
0.002140420795759482 0.001220507607121116 0
0.002599904613505419 0.00151887482309775 0
0.002437232916076763 0.00192495523252645 0
0.001389538974065565 0.001357840089250343 0
0.001274936457783526 0.001443177840717241 0
0.002753966283436445 0.001281886330553546 0
0.002627684472029586 0.001349782410123476 0
0.001898078685696591 0.001254759319325068 0
0.0007027141022469797 0.00212648071942704 0
0.00162137812875552 0.00171996936217904 0
0.003998705346071349 0.001492214790556322 0
0.001510087824438378 0.001247646447858148 0
0.008156670380217577 0.0036746378232403 0
0.00806090552448184 0.00285217897009229 0
0.007418563784916291 0.003265273839859764 0
0.007333313444553132 0.002562104119758022 0
0.006739333824823182 0.002939634316178363 0
0.007914936677141559 0.002150158811640401 0
0.006656589856789059 0.002280418513212584 0
0.004269219767175279 0.001621269595895576 0
0.004626907991842919 0.001677722774960905 0
0.005062176614664707 0.001800600314190546 0
0.005255000385309954 0.002198713344534335 0
0.005768564671988594 0.002477657628262996 0
0.003138316379101019 0.001440870553165399 0
0.003076306897621326 0.00124717477765514 0
0.002628978518538262 0.001219094346664227 0
0.002517512191217842 0.001260872387227639 0
0.005847138926257692 0.003033680913782609 0
0.005765975820622289 0.001977685222564321 0
0.006736609946145112 0.003676472516176088 0
0.001086246101992649 0.001656191656404056 0
0.002007011884170546 0.001294318369026421 0
0.009579667972581179 0.002577414460731396 0
0.002029089973463131 0.002073851615800433 0
0.002293681363173732 0.002112903509215711 0
0.004049486662974653 0.00265489080590032 0
0.001049733582760323 0.001443058562128926 0
0.001651936844105582 0.001293391432134645 0
0.0006668847937975761 0.001443678308854486 0
0.008675589533196514 0.002353336899505617 0
0.001776498460690214 0.001210696503772328 0
0.0004073723377166658 0.003170144991230783 0
0.0007957912528046883 0.003395512291105563 0
0.0008060209062226728 0.003855236394490345 0
0.001196262683852115 0.003612281458320271 0
0.001221984424352854 0.004080238693467072 0
0.001624712312646788 0.00382530168327159 0
0.001671627342379665 0.004342133983123535 0
0.002127811790189088 0.004066673899776971 0
0.002185620991379131 0.004633055881986141 0
0.001559502651073631 0.004949798436887394 0
0.002160173053296825 0.00527987054590143 0
0.002752768527583145 0.004920997866143766 0
0.002791514155100583 0.00561297827955742 0
0.002152689709267279 0.005994173270490235 0
0.002840362463357212 0.006364460557419569 0
0.002078048429279732 0.006757955804641887 0
0.00279770317036129 0.007191874849251594 0
0.003599740953930269 0.006701749713278585 0
0.00368401861684006 0.00759755171392646 0
0.002795191447088572 0.008118510532688356 0
0.003723873597929421 0.008580788473624265 0
0.004600418927446158 0.008017860990743456 0
0.004647702236759222 0.009029851092365043 0
0.005528803406432512 0.008440946921560994 0
0.001371658579754329 0.006351065273459569 0
0.0007791917682196077 0.002973647857466153 0
0.002865902792913468 0.00911547959674453 0
0.0008551855328045473 0.004362163752172183 0
0.003371505171405229 0.005279620695091194 0
0.001852150426879009 0.008552819731354647 0
0.0004633980292569886 0.002774229953545026 0
0.0007130004232827672 0.006974829652373531 0
0.0008161699302452202 0.002602092926763896 0
0.001098866905731583 0.00278321126283582 0
0.002546124689989281 0.001153522646743343 0
0.001148932973983225 0.003177198764088956 0
0.001531042332570256 0.00337300914267927 0
0.002176386479987869 0.01080395337655749 0
0.002633024193990634 0.001117615505672636 0
0.001234893831408002 0.001275821120643816 0
0.001053857627429802 0.001259160273525876 0
0.005013482322226775 0.0108422171907257 0
0.002691993781118309 0.001888143807071354 0
0.003086284454649695 0.00249586760020549 0
0.005506305499997509 0.007306818499740155 0
0.005638699741638257 0.009617012793051001 0
0.006963461217530368 0.009652228098212484 0
0.007680669914847694 0.01074086364349922 0
0.008252825553486802 0.009581277055033971 0
0.009584784003305992 0.009425440564808174 0
0.01060536464419656 0.01059842340469127 0
0.010785215758139 0.009276631515933666 0
0.006571082320431068 0.001415225427252539 0
0.008047754328458284 0.004658356046408047 0
0.01017522307562436 0.001806298263330038 0
0.0106137460582911 0.002837193942792328 0
0.01174963092812492 0.002679126930643542 0
0.01300676345427616 0.002963756564359579 0
0.0009461737199037391 0.0089942913784725 0
0.00196731303062151 0.007588317317102408 0
0.002874879632939434 0.002050525638980429 0
0.01300077917917618 0.005740859959299968 0
0.01187515385028979 0.006457347711172929 0
0.01192559820168054 0.007741510858543001 0
0.01070649888844336 0.007227274645096784 0
0.01187528465856093 0.00504443898144195 0
0.001984774268415583 0.001815964865934961 0
0.0006297413946404176 0.006157864754696731 0
0.001415655566681155 0.001137422238781879 0
0.0008785623162224103 0.001365619011849853 0
0.004038236465166073 0.001230305612140807 0
0.006106183568462158 0.001365997271491563 0
0.01303928799983556 0.008458561802142718 0
0.008460237419919607 0.001618168209515058 0
0.01191584549425924 0.003858112762462282 0
0.002050130024626699 0.001096448354617685 0
0.002015866126719161 0.001159340101098361 0
0.01000150973551809 0.00831533259594565 0
0.004535447965756992 0.007023108510959827 0
0.005215085761917498 0.001367013017658195 0
0.0002373969371166735 0.001961308637319286 0
0.0003246630851640942 0.001199908508267435 0
0.0006892957106794845 0.001175177569406037 0
0.001154645269165237 0.001147981723153834 0
0.002434878316507902 0.001044812507504244 0
0.002436626582176508 0.001108512754862367 0
0.001534067126061355 0.001130736693472103 0
0.002539891769729807 0.001706262915968045 0
0.0036147471930872 0.001402800675667363 0
0.003444135906116579 0.001284583835560536 0
0.007480530956365023 0.008515384740859956 0
0.002219567899979853 0.001156156135103648 0
0.001727154710154336 0.001112262605836626 0
0.004627624074254499 0.001301387166881993 0
0.001900085404321792 0.001102308765880148 0
0.003387576097106684 0.002238459989304847 0
0.00383276953276315 0.001162845815712003 0
0.003452568808686313 0.001131634286340793 0
0.006285340232633357 0.001829202147485661 0
0.003306897912326101 0.004544625127818216 0
0.002237809316775492 0.001084735314424416 0
0.003020850423269979 0.00110805429276148 0
0.003160405856023201 0.001129952414618401 0
0.00148318347945545 0.001879221900637191 0
0.002800135938639644 0.001082347659634196 0
0.00255906947557364 0.001061323170388897 0
0.002673416109083922 0.004304376523387624 0
0.01284951667911154 0.00989115511710952 0
0.008784880901517701 0.008474877415087751 0
0.006469762949120822 0.007863670088150027 0
0.006268897171870265 0.00424549579174532 0
0.001547916008636841 0.005639502540635972 0
0.002116414620784435 0.001087668128568313 0
0.002027890009042254 0.003512006823207364 0
0.001775636641484386 0.001769911524550089 0
0.001959968645796385 0.009652011350450969 0
0.001448329246045103 0.002940512111131279 0
0.004963335634749964 0.003782724169037978 0
0.002955339549643625 0.001204067104084938 0
0.00145081724387301 0.001676299754675258 0
0.01258595694557369 0.002055667823607095 0
0.005447883099019567 0.001682166862186504 0
0.01065879688193793 0.005059374906708958 0
0.001335624432272172 0.002584496088944854 0
0.004279530311204133 0.006245331140610756 0
0.003267029102302219 0.001296084902058481 0
0.007708007546099034 0.00154064443304824 0
0.003714438682272974 0.009585773600218539 0
0.006485961289440027 0.006850972372972609 0
0.005411220904499937 0.003455162667178013 0
0.00045806930306148 0.004728325876886609 0
0.0009817287307234517 0.004885968641523299 0
0.003469987281031814 0.005968999859368939 0
0.002088764282279425 0.001153650475003566 0
0.002496458319119175 0.001380309846957858 0
0.002424269140554344 0.001509695249771826 0
0.002581165729576398 0.003803239905927007 0
0.005101304497911682 0.005901171423673551 0
0.0008621722990024632 0.002288514625205568 0
0.003724207874712943 0.002427076209771247 0
0.0004149277094926453 0.004107761159263473 0
0.003575664062680967 0.004024057993124323 0
0.001877938093564343 0.001624096748890968 0
0.003933877988551585 0.005000333645251047 0
0.002846947810191134 0.001194115623696902 0
0.0004648583165415724 0.001347507981166331 0
0.002093884272109835 0.003072950799583387 0
0.0004830815667976446 0.002080958387100108 0
0.0005473773366944244 0.002391324673872076 0
0.006279788137635655 0.002629479553949828 0
0.001280384889306158 0.001601307455095515 0
0.002027650977011173 0.001651309119228611 0
0.002727428019608327 0.001159962283409646 0
0.002312214525559366 0.001448589562359088 0
0.002461354504707812 0.001180055431069243 0
0.01089480913154819 0.006035504648431905 0
0.002425619965205808 0.001276369744289515 0
0.001355626712411174 0.001237499999937668 0
0.001865674844553912 0.001169662700148976 0
0.001021858881763783 0.00113251355859609 0
0.002867942487680807 0.009981011081019788 0
0.01194177730233475 0.009031734116317686 0
0.007189829281334919 0.001996792905595859 0
0.006416251654217397 0.008817848528366892 0
0.001938173240647916 0.001168278900374508 0
0.0009222928534868375 0.01109906645087156 0
0.00140402166106652 0.007037343508425944 0
0.002582800146520986 0.002100788707519217 0
0.008205766100240635 0.007691536582839815 0
0.002768223687229292 0.003466942462515972 0
0.0001535821789742872 0.001187399721860648 0
0.009972303575430391 0.006481576944026354 0
0.002149314339088259 0.001139747965386874 0
0.00239401358858384 0.001033715024487765 0
0.01312238920395859 0.01096400891006698 0
0.01124778307193808 0.00334469063302634 0
0.001585190757050524 0.002692090539907614 0
0.001601131751666193 0.001199120710639452 0
0.00615125174393379 0.002238888613095078 0
0.002286849818339075 0.001070335905087939 0
0.007504672877028322 0.003939780253583338 0
0.0006172858734414554 0.001291517400579373 0
0.001679096406638882 0.00118545357961872 0
0.005140929436365345 0.006682941836212467 0
0.004212569072620361 0.00139542640354814 0
0.00125800573626683 0.004524060701434697 0
0.01338362725590049 0.001827001313876825 0
0.001105325850915977 0.005377329467738699 0
0.004419078702366668 0.001436468218046417 0
0.001159287146468404 0.00152921293011352 0
0.000745270582548381 0.001292283617398098 0
0.003937270631193459 0.005609858770256108 0
0.002430840279671918 0.002288213503642386 0
0.004527467764066114 0.009964538431497539 0
0.006298860787053051 0.003158495726110326 0
0.004891290070284938 0.001501306546964715 0
0.003734632362034257 0.002818775147946607 0
0.003082962599130551 0.002210097106759973 0
0.001807341207791239 0.003172255990039801 0
0.0002532546514747557 0.002576074684807616 0
0.006022173826312623 0.003598140180079143 0
0.00205392900866186 0.001223765615029847 0
0.002096544411694621 0.001290540861223154 0
0.003815064157486223 0.001355915189482433 0
0.001982611789179215 0.001220092460970841 0
0.005868851780577109 0.001623270244809799 0
0.002631697455612425 0.001045766457497419 0
0.001069892526242705 0.0058450683918846 0
0.0110395433844252 0.008278609628375812 0
0.00164415233697074 0.001884739723628904 0
0.00249604424910697 0.001109030443828828 0
0.01148669094625873 0.009997635217780658 0
0.001136412845785785 0.001357973277216711 0
0.006760630603099435 0.001797074871704164 0
0.01193138009115889 0.001720504864218388 0
$EndNodes
$Elements
9 1428 1 1428
1 1 1 29
1 1 10 
2 10 11 
3 11 12 
4 12 13 
5 13 14 
6 14 15 
7 15 16 
8 16 17 
9 17 18 
10 18 19 
11 19 20 
12 20 21 
13 21 22 
14 22 23 
15 23 24 
16 24 25 
17 25 26 
18 26 27 
19 27 28 
20 28 29 
21 29 30 
22 30 31 
23 31 32 
24 32 33 
25 33 34 
26 34 35 
27 35 36 
28 36 37 
29 37 2 
1 2 1 1
30 2 3 
1 3 1 8
31 3 38 
32 38 39 
33 39 40 
34 40 41 
35 41 42 
36 42 43 
37 43 44 
38 44 9 
1 4 1 10
39 9 45 
40 45 46 
41 46 47 
42 47 48 
43 48 49 
44 49 50 
45 50 51 
46 51 52 
47 52 53 
48 53 8 
1 9 1 21
49 4 105 
50 105 106 
51 106 107 
52 107 108 
53 108 109 
54 109 110 
55 110 111 
56 111 112 
57 112 113 
58 113 114 
59 114 115 
60 115 116 
61 116 117 
62 117 118 
63 118 119 
64 119 120 
65 120 121 
66 121 122 
67 122 123 
68 123 124 
69 124 5 
1 10 1 21
70 6 125 
71 125 126 
72 126 127 
73 127 128 
74 128 129 
75 129 130 
76 130 131 
77 131 132 
78 132 133 
79 133 134 
80 134 135 
81 135 136 
82 136 137 
83 137 138 
84 138 139 
85 139 140 
86 140 141 
87 141 142 
88 142 143 
89 143 144 
90 144 7 
1 11 1 1
91 5 7 
2 13 2 456
92 224 246 283 
93 2 37 294 
94 174 175 176 
95 199 221 225 
96 150 244 297 
97 246 213 283 
98 164 173 174 
99 168 170 171 
100 176 177 179 
101 209 153 220 
102 171 170 172 
103 194 197 240 
104 158 206 262 
105 222 148 227 
106 185 222 227 
107 247 219 272 
108 182 222 323 
109 174 173 175 
110 253 156 263 
111 217 218 237 
112 146 226 267 
113 104 3 294 
114 168 206 207 
115 199 225 248 
116 207 206 260 
117 222 185 323 
118 182 179 204 
119 176 179 182 
120 237 218 292 
121 27 208 277 
122 168 24 170 
123 244 245 297 
124 215 212 234 
125 148 222 228 
126 176 175 177 
127 164 22 173 
128 230 149 266 
129 205 255 281 
130 174 176 178 
131 226 146 282 
132 240 197 241 
133 230 266 271 
134 251 226 275 
135 226 251 267 
136 179 177 180 
137 227 148 270 
138 171 172 253 
139 220 153 308 
140 212 211 234 
141 193 194 240 
142 27 26 208 
143 208 207 299 
144 219 247 302 
145 153 209 246 
146 16 159 225 
147 23 22 164 
148 266 155 271 
149 108 153 224 
150 262 206 291 
151 160 221 249 
152 264 253 300 
153 160 18 221 
154 25 24 168 
155 168 171 206 
156 200 220 241 
157 164 174 202 
158 151 247 272 
159 37 36 311 
160 173 22 315 
161 276 273 288 
162 28 27 257 
163 106 163 229 
164 217 237 238 
165 204 179 205 
166 206 158 260 
167 17 16 225 
168 156 253 264 
169 31 30 252 
170 273 276 285 
171 21 20 162 
172 222 204 228 
173 33 32 293 
174 33 293 310 
175 26 207 208 
176 148 228 301 
177 107 108 224 
178 257 27 277 
179 215 234 296 
180 178 176 323 
181 14 151 233 
182 207 260 299 
183 221 17 225 
184 229 163 238 
185 264 155 265 
186 19 18 160 
187 25 168 207 
188 163 107 224 
189 15 14 233 
190 180 183 226 
191 221 199 249 
192 224 153 246 
193 30 231 252 
194 203 178 319 
195 179 180 329 
196 182 204 222 
197 193 242 297 
198 149 230 286 
199 106 107 163 
200 26 25 207 
201 253 263 289 
202 18 17 221 
203 204 205 281 
204 241 220 278 
205 105 106 229 
206 191 193 297 
207 163 224 283 
208 235 166 243 
209 155 264 271 
210 22 21 315 
211 170 24 326 
212 206 171 291 
213 197 200 241 
214 180 181 183 
215 20 19 223 
216 218 216 219 
217 19 160 223 
218 176 182 323 
219 162 20 320 
220 108 109 153 
221 183 184 186 
222 159 15 233 
223 16 15 159 
224 226 183 275 
225 112 113 239 
226 225 159 312 
227 187 189 191 
228 72 154 243 
229 183 186 275 
230 218 219 235 
231 202 178 203 
232 187 191 245 
233 214 215 216 
234 194 196 197 
235 70 4 287 
236 200 209 220 
237 14 13 151 
238 28 295 307 
239 159 233 234 
240 115 116 244 
241 103 104 311 
242 4 105 287 
243 72 71 154 
244 214 212 215 
245 32 31 279 
246 255 205 282 
247 191 192 193 
248 152 240 241 
249 234 233 296 
250 217 216 218 
251 197 198 200 
252 216 215 272 
253 228 204 305 
254 154 237 292 
255 197 196 198 
256 213 212 214 
257 210 212 213 
258 20 223 320 
259 209 210 246 
260 253 172 300 
261 118 119 251 
262 71 70 236 
263 151 13 247 
264 210 211 212 
265 13 12 247 
266 314 190 320 
267 74 73 166 
268 234 211 312 
269 186 187 245 
270 200 201 209 
271 24 23 326 
272 29 28 307 
273 156 264 265 
274 166 235 269 
275 214 216 217 
276 153 109 308 
277 12 11 161 
278 269 161 284 
279 210 213 246 
280 36 35 324 
281 172 170 274 
282 200 198 201 
283 75 74 232 
284 175 173 288 
285 209 201 210 
286 111 112 152 
287 73 72 243 
288 121 122 255 
289 193 192 194 
290 235 243 292 
291 191 189 192 
292 210 201 211 
293 160 249 306 
294 219 216 272 
295 194 195 196 
296 12 161 247 
297 186 184 187 
298 114 115 150 
299 238 237 325 
300 180 177 181 
301 152 241 278 
302 152 112 239 
303 154 236 237 
304 242 150 297 
305 95 96 231 
306 97 98 279 
307 245 244 304 
308 183 181 184 
309 226 282 329 
310 171 289 291 
311 198 196 199 
312 31 252 279 
313 93 94 169 
314 28 257 295 
315 110 111 278 
316 74 166 232 
317 232 269 284 
318 230 185 286 
319 239 113 298 
320 91 92 167 
321 117 118 147 
322 211 248 312 
323 164 202 274 
324 232 166 269 
325 96 97 252 
326 89 90 165 
327 174 178 202 
328 116 117 261 
329 150 242 298 
330 247 161 302 
331 87 88 158 
332 100 101 317 
333 94 95 254 
334 231 30 309 
335 161 11 284 
336 85 86 157 
337 23 164 326 
338 83 84 156 
339 111 152 278 
340 196 195 249 
341 81 82 155 
342 92 93 256 
343 79 80 149 
344 123 124 145 
345 120 121 146 
346 10 1 313 
347 90 91 258 
348 248 225 312 
349 223 160 314 
350 154 71 236 
351 1 75 313 
352 78 79 250 
353 162 276 288 
354 119 120 267 
355 194 192 195 
356 150 115 244 
357 88 89 259 
358 233 151 296 
359 238 163 283 
360 244 116 261 
361 187 188 189 
362 86 87 262 
363 32 279 293 
364 252 97 279 
365 21 162 315 
366 84 85 263 
367 82 83 265 
368 199 196 249 
369 80 81 266 
370 122 123 268 
371 317 101 328 
372 218 235 292 
373 152 239 240 
374 76 77 148 
375 193 240 327 
376 77 78 270 
377 203 230 271 
378 242 239 298 
379 11 10 284 
380 223 314 320 
381 213 214 316 
382 105 229 287 
383 278 220 308 
384 95 231 254 
385 235 219 302 
386 166 73 243 
387 205 179 329 
388 229 238 325 
389 243 154 292 
390 177 175 273 
391 30 29 309 
392 35 34 328 
393 248 211 318 
394 101 102 328 
395 102 103 324 
396 251 119 267 
397 180 226 329 
398 147 118 251 
399 93 169 256 
400 186 245 304 
401 189 188 190 
402 217 238 316 
403 211 201 318 
404 91 167 258 
405 199 248 318 
406 102 35 328 
407 110 278 308 
408 117 147 261 
409 34 33 317 
410 98 99 293 
411 89 165 259 
412 256 169 295 
413 124 5 290 
414 187 184 188 
415 190 188 276 
416 255 122 268 
417 236 70 287 
418 198 199 318 
419 189 190 280 
420 87 158 262 
421 283 213 316 
422 275 186 303 
423 231 96 252 
424 146 121 255 
425 114 150 298 
426 192 189 280 
427 279 98 293 
428 85 157 263 
429 269 235 302 
430 245 191 297 
431 83 156 265 
432 169 94 254 
433 81 155 266 
434 181 177 273 
435 257 256 295 
436 258 167 277 
437 250 149 286 
438 272 215 296 
439 120 146 267 
440 113 114 298 
441 227 250 286 
442 167 92 256 
443 3 2 294 
444 99 100 310 
445 123 145 268 
446 195 192 280 
447 35 102 324 
448 165 90 258 
449 79 149 250 
450 109 110 308 
451 190 276 320 
452 158 88 259 
453 37 104 294 
454 157 86 262 
455 185 319 323 
456 78 250 270 
457 156 84 263 
458 155 82 265 
459 151 272 296 
460 149 80 266 
461 263 157 289 
462 146 255 282 
463 5 76 301 
464 167 256 257 
465 147 251 275 
466 103 36 324 
467 249 195 306 
468 104 37 311 
469 293 99 310 
470 34 317 328 
471 148 77 270 
472 145 124 290 
473 185 230 319 
474 158 259 260 
475 250 227 270 
476 184 181 285 
477 271 264 300 
478 203 271 300 
479 160 306 314 
480 287 229 325 
481 36 103 311 
482 276 188 285 
483 273 175 288 
484 161 269 302 
485 268 145 281 
486 76 148 301 
487 159 234 312 
488 202 203 322 
489 208 299 321 
490 185 227 286 
491 167 257 277 
492 239 242 327 
493 171 253 289 
494 75 232 313 
495 188 184 285 
496 236 287 325 
497 201 198 318 
498 181 273 285 
499 214 217 316 
500 288 173 315 
501 290 5 301 
502 274 202 322 
503 238 283 316 
504 237 236 325 
505 164 274 326 
506 203 300 322 
507 258 277 321 
508 240 239 327 
509 319 178 323 
510 254 231 309 
511 172 274 322 
512 242 193 327 
513 284 10 313 
514 204 281 305 
515 195 280 306 
516 303 186 304 
517 244 261 304 
518 157 262 291 
519 261 147 303 
520 280 190 314 
521 289 157 291 
522 259 165 299 
523 276 162 320 
524 147 275 303 
525 232 284 313 
526 169 254 307 
527 230 203 319 
528 145 290 305 
529 260 259 299 
530 274 170 326 
531 281 145 305 
532 165 258 321 
533 277 208 321 
534 306 280 314 
535 295 169 307 
536 299 165 321 
537 307 254 309 
538 162 288 315 
539 33 310 317 
540 261 303 304 
541 310 100 317 
542 29 307 309 
543 290 228 305 
544 282 205 329 
545 228 290 301 
546 300 172 322 
547 255 268 281 
2 15 2 881
548 472 600 648 
549 542 345 572 
550 495 470 496 
551 529 532 572 
552 340 504 511 
553 345 542 571 
554 600 462 648 
555 432 431 493 
556 578 427 587 
557 427 578 635 
558 427 426 568 
559 528 529 572 
560 626 399 649 
561 445 470 495 
562 606 491 701 
563 577 422 684 
564 346 553 582 
565 432 493 494 
566 7 5 686 
567 426 504 568 
568 592 492 708 
569 553 346 672 
570 507 390 709 
571 405 573 710 
572 46 47 563 
573 422 577 590 
574 447 472 477 
575 470 447 476 
576 410 404 566 
577 415 390 507 
578 660 479 661 
579 513 64 543 
580 418 372 502 
581 476 477 497 
582 418 502 663 
583 707 501 713 
584 520 626 649 
585 477 472 647 
586 551 330 665 
587 445 446 447 
588 362 46 563 
589 478 463 512 
590 569 570 587 
591 440 438 608 
592 557 413 641 
593 441 495 638 
594 478 512 671 
595 491 606 708 
596 414 612 619 
597 404 412 566 
598 344 660 661 
599 355 560 561 
600 463 509 512 
601 443 440 608 
602 354 512 605 
603 343 554 558 
604 615 333 638 
605 434 435 491 
606 470 476 657 
607 510 658 694 
608 384 405 556 
609 496 615 638 
610 355 561 562 
611 463 464 509 
612 462 457 648 
613 445 447 470 
614 545 407 546 
615 537 544 580 
616 501 623 713 
617 512 354 671 
618 441 442 495 
619 434 491 492 
620 442 444 445 
621 492 592 634 
622 439 440 441 
623 504 429 511 
624 612 414 654 
625 363 364 604 
626 497 477 498 
627 101 102 567 
628 532 542 572 
629 663 502 702 
630 476 447 477 
631 437 438 439 
632 466 505 579 
633 420 410 566 
634 571 542 628 
635 442 445 495 
636 427 568 688 
637 454 460 503 
638 355 48 560 
639 622 557 641 
640 68 69 365 
641 435 436 437 
642 556 405 710 
643 552 553 596 
644 447 446 472 
645 496 470 631 
646 448 360 598 
647 63 64 513 
648 460 463 478 
649 363 604 613 
650 504 340 567 
651 497 498 547 
652 380 506 705 
653 434 433 435 
654 493 492 634 
655 445 444 446 
656 543 64 712 
657 501 412 623 
658 639 488 675 
659 341 552 596 
660 579 655 664 
661 500 493 634 
662 503 478 717 
663 606 350 708 
664 510 366 658 
665 604 342 613 
666 407 545 651 
667 5 76 686 
668 437 439 481 
669 340 101 567 
670 581 482 670 
671 441 440 442 
672 431 434 493 
673 486 487 489 
674 460 478 503 
675 497 551 665 
676 47 355 563 
677 397 401 650 
678 553 508 582 
679 602 441 638 
680 464 468 509 
681 590 562 621 
682 431 415 433 
683 484 485 486 
684 521 520 619 
685 468 474 482 
686 502 428 508 
687 358 68 365 
688 380 505 506 
689 344 593 660 
690 429 483 484 
691 421 603 622 
692 538 543 545 
693 437 436 438 
694 494 493 500 
695 538 513 543 
696 570 357 587 
697 428 510 582 
698 439 438 440 
699 468 482 509 
700 612 394 656 
701 458 466 579 
702 431 433 434 
703 370 368 428 
704 339 639 675 
705 48 49 560 
706 340 511 586 
707 574 575 578 
708 361 571 628 
709 479 651 661 
710 435 433 436 
711 368 366 510 
712 422 590 621 
713 343 50 554 
714 343 558 559 
715 454 503 715 
716 338 63 513 
717 631 470 657 
718 486 485 487 
719 651 545 661 
720 372 370 502 
721 351 601 602 
722 484 483 485 
723 514 513 538 
724 358 365 366 
725 357 574 578 
726 411 386 556 
727 426 425 429 
728 435 437 490 
729 505 466 506 
730 344 66 593 
731 102 349 567 
732 358 367 593 
733 374 372 418 
734 579 627 655 
735 429 425 483 
736 578 575 668 
737 643 61 653 
738 370 428 502 
739 345 544 679 
740 428 368 510 
741 365 69 683 
742 562 561 621 
743 551 547 618 
744 538 546 548 
745 623 408 713 
746 357 40 574 
747 356 52 550 
748 65 66 344 
749 67 68 358 
750 550 361 628 
751 386 384 556 
752 531 530 591 
753 484 486 488 
754 570 569 633 
755 378 376 406 
756 482 581 599 
757 67 358 593 
758 458 579 664 
759 400 397 650 
760 39 357 570 
761 384 382 405 
762 424 420 425 
763 488 486 675 
764 51 356 554 
765 62 63 338 
766 504 567 568 
767 426 429 504 
768 439 441 601 
769 364 450 604 
770 619 520 649 
771 505 406 579 
772 602 333 610 
773 482 474 670 
774 433 415 507 
775 425 420 566 
776 51 52 356 
777 572 345 679 
778 460 461 463 
779 540 643 653 
780 541 612 656 
781 412 402 623 
782 350 592 708 
783 574 348 575 
784 424 425 426 
785 481 439 716 
786 538 545 546 
787 338 513 514 
788 450 471 604 
789 132 133 581 
790 39 40 357 
791 476 497 665 
792 439 601 716 
793 508 428 582 
794 367 366 368 
795 430 415 431 
796 38 39 570 
797 450 452 471 
798 388 386 411 
799 553 552 725 
800 635 578 668 
801 534 531 591 
802 442 443 444 
803 52 53 550 
804 575 576 577 
805 408 396 630 
806 524 521 619 
807 333 602 638 
808 357 578 587 
809 520 518 626 
810 618 547 723 
811 514 538 548 
812 102 103 349 
813 435 490 491 
814 369 368 370 
815 56 57 345 
816 49 50 343 
817 49 343 560 
818 54 55 361 
819 412 501 693 
820 361 550 678 
821 345 57 544 
822 100 101 340 
823 454 456 460 
824 601 351 716 
825 57 58 544 
826 429 484 511 
827 40 41 574 
828 361 55 571 
829 536 534 557 
830 41 348 574 
831 522 523 624 
832 582 510 703 
833 351 602 610 
834 464 467 468 
835 351 609 716 
836 371 370 372 
837 557 534 591 
838 59 60 337 
839 99 586 639 
840 56 345 571 
841 497 547 551 
842 378 406 505 
843 337 643 644 
844 468 469 474 
845 50 51 554 
846 355 562 563 
847 544 58 580 
848 55 56 571 
849 570 633 699 
850 545 543 661 
851 42 43 585 
852 360 359 598 
853 58 59 580 
854 629 416 711 
855 406 376 722 
856 392 390 415 
857 544 537 679 
858 474 475 552 
859 622 603 676 
860 59 337 580 
861 548 546 629 
862 362 563 724 
863 597 347 598 
864 47 48 355 
865 405 382 705 
866 139 140 588 
867 99 100 586 
868 398 396 408 
869 575 348 576 
870 100 340 586 
871 373 372 374 
872 38 570 699 
873 518 516 549 
874 97 98 339 
875 483 425 566 
876 66 67 593 
877 41 42 348 
878 96 565 584 
879 549 548 629 
880 563 562 564 
881 404 402 412 
882 487 485 501 
883 96 97 565 
884 560 559 561 
885 375 377 636 
886 45 46 362 
887 43 44 620 
888 413 557 696 
889 382 380 705 
890 407 375 636 
891 419 410 420 
892 337 60 643 
893 567 349 568 
894 564 562 590 
895 94 95 335 
896 411 556 608 
897 423 420 424 
898 541 524 612 
899 376 374 616 
900 558 554 706 
901 561 559 603 
902 64 65 712 
903 584 565 611 
904 348 42 585 
905 358 366 367 
906 376 616 722 
907 475 702 725 
908 523 526 624 
909 585 43 620 
910 546 407 636 
911 437 481 490 
912 674 620 724 
913 343 559 560 
914 126 127 353 
915 532 539 542 
916 526 528 537 
917 609 583 716 
918 566 412 693 
919 399 626 659 
920 401 413 650 
921 549 629 711 
922 128 129 346 
923 131 132 341 
924 61 62 653 
925 601 441 602 
926 516 514 548 
927 552 341 670 
928 94 335 592 
929 448 598 667 
930 637 650 696 
931 92 93 350 
932 414 619 649 
933 134 135 336 
934 620 362 724 
935 342 604 685 
936 367 368 369 
937 392 415 430 
938 125 126 594 
939 374 418 616 
940 576 348 585 
941 647 472 648 
942 511 488 586 
943 127 128 595 
944 591 530 637 
945 436 433 507 
946 463 461 464 
947 380 378 505 
948 97 339 565 
949 98 99 639 
950 430 431 432 
951 525 541 645 
952 614 496 631 
953 460 456 461 
954 581 133 599 
955 136 137 354 
956 130 131 596 
957 612 524 619 
958 516 548 549 
959 369 370 371 
960 432 499 642 
961 424 426 427 
962 133 134 599 
963 644 522 700 
964 103 104 727 
965 135 136 605 
966 509 482 690 
967 95 96 584 
968 421 622 641 
969 554 356 706 
970 484 488 511 
971 537 580 720 
972 586 488 639 
973 526 537 624 
974 536 557 622 
975 371 372 373 
976 555 573 680 
977 138 139 332 
978 518 549 626 
979 468 467 469 
980 142 143 613 
981 579 406 627 
982 89 90 583 
983 341 132 581 
984 419 420 423 
985 594 365 683 
986 515 514 516 
987 611 500 718 
988 555 473 600 
989 137 138 607 
990 483 566 693 
991 375 374 376 
992 93 94 592 
993 446 444 555 
994 495 496 638 
995 583 481 716 
996 8 54 678 
997 442 440 443 
998 90 91 334 
999 432 494 499 
1000 474 469 475 
1001 356 640 706 
1002 480 616 632 
1003 408 630 642 
1004 472 446 600 
1005 535 534 536 
1006 616 418 632 
1007 492 491 708 
1008 528 572 679 
1009 608 438 652 
1010 87 88 351 
1011 517 516 518 
1012 459 647 648 
1013 533 531 534 
1014 529 527 530 
1015 508 553 725 
1016 525 524 541 
1017 91 92 606 
1018 519 518 520 
1019 126 353 594 
1020 353 127 595 
1021 522 624 700 
1022 366 365 658 
1023 629 546 636 
1024 523 521 524 
1025 85 86 333 
1026 409 417 421 
1027 576 585 674 
1028 434 492 493 
1029 84 85 615 
1030 561 603 621 
1031 128 346 595 
1032 489 487 662 
1033 591 637 696 
1034 86 87 610 
1035 398 408 623 
1036 330 617 665 
1037 542 539 628 
1038 88 89 609 
1039 82 83 352 
1040 661 543 712 
1041 330 551 719 
1042 338 514 515 
1043 552 475 725 
1044 60 61 643 
1045 131 341 596 
1046 499 662 707 
1047 377 376 378 
1048 423 424 635 
1049 92 350 606 
1050 576 674 721 
1051 417 410 419 
1052 527 525 645 
1053 44 9 687 
1054 401 403 413 
1055 550 53 678 
1056 80 81 330 
1057 411 652 709 
1058 496 614 615 
1059 446 555 600 
1060 336 135 605 
1061 373 374 375 
1062 409 404 410 
1063 134 336 599 
1064 83 84 614 
1065 77 78 347 
1066 383 382 384 
1067 9 45 687 
1068 76 77 597 
1069 387 386 388 
1070 6 125 683 
1071 559 558 676 
1072 535 536 558 
1073 385 384 386 
1074 140 141 625 
1075 436 507 652 
1076 568 349 569 
1077 512 509 695 
1078 587 427 688 
1079 652 507 709 
1080 659 626 711 
1081 417 419 422 
1082 389 388 390 
1083 78 79 618 
1084 533 534 535 
1085 395 393 396 
1086 136 354 605 
1087 403 402 404 
1088 394 612 654 
1089 141 142 342 
1090 379 378 380 
1091 81 82 617 
1092 391 390 392 
1093 409 410 417 
1094 529 530 531 
1095 401 398 402 
1096 529 531 532 
1097 397 396 398 
1098 354 137 607 
1099 611 489 691 
1100 532 533 539 
1101 332 139 588 
1102 637 530 645 
1103 403 404 409 
1104 53 8 678 
1105 395 397 400 
1106 637 400 650 
1107 526 527 528 
1108 523 525 526 
1109 592 335 634 
1110 402 398 623 
1111 617 657 665 
1112 356 550 673 
1113 424 427 635 
1114 391 393 394 
1115 346 582 703 
1116 464 465 467 
1117 573 405 680 
1118 515 516 517 
1119 381 380 382 
1120 523 524 525 
1121 138 332 607 
1122 532 531 533 
1123 346 129 672 
1124 502 508 702 
1125 69 6 683 
1126 387 389 414 
1127 89 583 609 
1128 387 388 389 
1129 528 527 529 
1130 486 489 675 
1131 385 386 387 
1132 409 421 641 
1133 401 402 403 
1134 339 98 639 
1135 392 430 630 
1136 389 390 391 
1137 517 518 519 
1138 444 443 573 
1139 519 520 521 
1140 390 388 709 
1141 530 527 645 
1142 397 398 401 
1143 62 338 653 
1144 649 399 682 
1145 519 521 522 
1146 526 525 527 
1147 391 392 393 
1148 588 140 625 
1149 702 508 725 
1150 383 385 399 
1151 474 552 670 
1152 383 384 385 
1153 369 371 479 
1154 643 540 644 
1155 395 396 397 
1156 394 393 395 
1157 603 421 681 
1158 85 333 615 
1159 515 517 540 
1160 452 454 715 
1161 501 485 693 
1162 144 7 331 
1163 375 376 377 
1164 454 455 456 
1165 344 661 712 
1166 593 367 660 
1167 547 498 667 
1168 335 95 584 
1169 498 647 669 
1170 575 577 668 
1171 90 334 583 
1172 522 521 523 
1173 452 453 454 
1174 491 490 701 
1175 87 351 610 
1176 347 618 723 
1177 569 587 688 
1178 381 382 383 
1179 590 577 721 
1180 506 473 680 
1181 662 487 707 
1182 500 611 691 
1183 450 451 452 
1184 379 381 416 
1185 396 393 630 
1186 498 477 647 
1187 469 467 632 
1188 365 594 658 
1189 580 337 720 
1190 443 608 710 
1191 377 378 379 
1192 373 375 407 
1193 350 93 592 
1194 364 449 450 
1195 338 515 653 
1196 565 339 726 
1197 104 633 727 
1198 413 403 641 
1199 130 596 672 
1200 604 471 685 
1201 464 461 465 
1202 480 465 627 
1203 597 359 686 
1204 599 336 690 
1205 430 432 642 
1206 438 436 652 
1207 393 392 630 
1208 489 662 691 
1209 379 380 381 
1210 395 400 656 
1211 522 644 698 
1212 473 462 600 
1213 537 528 679 
1214 594 353 658 
1215 499 494 662 
1216 648 457 666 
1217 558 536 676 
1218 467 465 480 
1219 539 533 640 
1220 403 409 641 
1221 533 535 640 
1222 129 130 672 
1223 359 597 598 
1224 598 347 723 
1225 482 599 690 
1226 104 3 699 
1227 647 459 669 
1228 584 611 718 
1229 334 91 606 
1230 637 645 704 
1231 82 352 617 
1232 454 453 455 
1233 603 559 676 
1234 391 394 654 
1235 620 44 687 
1236 331 360 363 
1237 577 576 721 
1238 452 451 453 
1239 455 453 457 
1240 473 555 680 
1241 371 373 651 
1242 515 540 653 
1243 640 356 673 
1244 351 88 609 
1245 422 419 684 
1246 448 667 669 
1247 630 430 642 
1248 333 86 610 
1249 555 444 573 
1250 364 360 448 
1251 383 399 659 
1252 466 462 473 
1253 595 346 703 
1254 332 588 589 
1255 80 330 719 
1256 394 395 656 
1257 467 480 632 
1258 617 352 657 
1259 363 360 364 
1260 141 342 625 
1261 77 347 597 
1262 417 422 681 
1263 422 621 681 
1264 605 512 695 
1265 352 83 614 
1266 342 142 613 
1267 451 449 459 
1268 636 377 689 
1269 387 414 682 
1270 596 553 672 
1271 614 84 615 
1272 450 449 451 
1273 367 369 660 
1274 466 473 506 
1275 588 625 646 
1276 459 648 666 
1277 458 457 462 
1278 475 469 663 
1279 674 564 721 
1280 589 588 646 
1281 347 78 618 
1282 487 501 707 
1283 389 391 654 
1284 458 462 466 
1285 414 389 654 
1286 519 522 698 
1287 3 38 699 
1288 352 614 631 
1289 461 456 655 
1290 330 81 617 
1291 423 635 668 
1292 400 637 704 
1293 621 603 681 
1294 485 483 693 
1295 411 608 652 
1296 481 583 697 
1297 337 644 700 
1298 414 649 682 
1299 479 371 651 
1300 642 499 713 
1301 369 479 660 
1302 455 457 458 
1303 377 379 689 
1304 339 675 726 
1305 143 144 692 
1306 364 448 449 
1307 613 143 692 
1308 490 481 697 
1309 627 465 655 
1310 629 636 689 
1311 535 558 706 
1312 373 407 651 
1313 54 361 678 
1314 585 620 674 
1315 341 581 670 
1316 658 353 694 
1317 539 640 673 
1318 45 362 687 
1319 557 591 696 
1320 634 335 718 
1321 645 541 704 
1322 667 498 669 
1323 79 80 719 
1324 469 632 663 
1325 569 349 727 
1326 354 607 671 
1327 388 411 709 
1328 618 79 719 
1329 337 700 720 
1330 633 569 727 
1331 550 628 673 
1332 626 549 711 
1333 494 500 691 
1334 416 381 659 
1335 381 383 659 
1336 423 668 684 
1337 362 620 687 
1338 399 385 682 
1339 331 363 692 
1340 608 556 710 
1341 536 622 676 
1342 628 539 673 
1343 65 344 712 
1344 478 671 677 
1345 465 461 655 
1346 352 631 657 
1347 456 455 664 
1348 644 540 698 
1349 540 517 698 
1350 471 452 715 
1351 668 577 684 
1352 457 453 666 
1353 506 680 705 
1354 416 629 689 
1355 419 423 684 
1356 421 417 681 
1357 480 627 722 
1358 500 634 718 
1359 379 416 689 
1360 655 456 664 
1361 616 480 722 
1362 632 418 663 
1363 564 590 721 
1364 459 449 669 
1365 125 594 683 
1366 385 387 682 
1367 359 7 686 
1368 563 564 724 
1369 541 656 704 
1370 353 595 694 
1371 475 663 702 
1372 76 597 686 
1373 509 690 695 
1374 568 569 688 
1375 471 646 685 
1376 449 448 669 
1377 331 7 359 
1378 667 598 723 
1379 478 677 717 
1380 607 332 677 
1381 455 458 664 
1382 627 406 722 
1383 349 103 727 
1384 657 476 665 
1385 453 451 666 
1386 633 104 699 
1387 336 605 695 
1388 517 519 698 
1389 662 494 691 
1390 331 359 360 
1391 363 613 692 
1392 451 459 666 
1393 624 537 720 
1394 671 607 677 
1395 332 589 677 
1396 144 331 692 
1397 489 611 726 
1398 551 618 719 
1399 625 342 685 
1400 573 443 710 
1401 611 565 726 
1402 646 625 685 
1403 583 334 697 
1404 656 400 704 
1405 640 535 706 
1406 335 584 718 
1407 650 413 696 
1408 646 471 714 
1409 334 606 701 
1410 697 334 701 
1411 589 646 714 
1412 564 674 724 
1413 589 714 717 
1414 690 336 695 
1415 547 667 723 
1416 675 489 726 
1417 416 659 711 
1418 490 697 701 
1419 694 595 703 
1420 408 642 713 
1421 714 471 715 
1422 499 707 713 
1423 510 694 703 
1424 680 405 705 
1425 677 589 717 
1426 714 503 717 
1427 700 624 720 
1428 503 714 715 
$EndElements
